generated/CPUTop.vcd
$date
2021-11-03T18:57+0000
$end
$version
0.2
$end
$comment

$end
$timescale 1ns  $end
$scope module CPUTop $end
 $var wire 32 ( io_testerDataMemDataRead $end
 $var wire 32 C result $end
 $var wire 1 E _T $end
 $var wire 1 Q io_testerDataMemWriteEnable $end
 $var wire 1 W registerFile $end
 $var wire 1 k intSel $end
 $var wire 32 q b $end
 $var wire 1 "2 uJump $end
 $var wire 1 "6 io_testerProgMemEnable $end
 $var wire 16 "> intermediate $end
 $var wire 1 "X io_testerProgMemWriteEnable $end
 $var wire 32 "Z io_testerProgMemDataWrite $end
 $var wire 1 "] programMemory $end
 $var wire 1 "a programCounter $end
 $var wire 32 "h io_testerDataMemDataWrite $end
 $var wire 1 "r jumpAndOr $end
 $var wire 1 "~ alu $end
 $var wire 1 #+ io_testerDataMemEnable $end
 $var wire 32 #> dataRead $end
 $var wire 32 #J a $end
 $var wire 1 #O cJump $end
 $var wire 1 #j clock $end
 $var wire 1 #s writeDataSel $end
 $var wire 32 #t instruction $end
 $var wire 1 #} boolResult $end
 $var wire 1 $+ dataMemory $end
 $var wire 16 $, io_testerDataMemAddress $end
 $var wire 1 $? io_done $end
 $var wire 1 $O controlUnit $end
 $var wire 1 %6 reset $end
 $var wire 16 %S io_testerProgMemAddress $end
 $var wire 1 %V io_run $end
 $var wire 32 %Z io_testerProgMemDataRead $end
  $scope module controlUnit $end
   $var wire 1 ! _GEN_29 $end
   $var wire 1 - _GEN_14 $end
   $var wire 1 6 _GEN_41 $end
   $var wire 2 ; _GEN_20 $end
   $var wire 1 < _GEN_38 $end
   $var wire 1 = _GEN_17 $end
   $var wire 1 H _GEN_91 $end
   $var wire 1 [ io_mux_sel1 $end
   $var wire 1 b _GEN_73 $end
   $var wire 1 i _GEN_94 $end
   $var wire 1 j _GEN_88 $end
   $var wire 1 | _GEN_82 $end
   $var wire 4 "# _GEN_76 $end
   $var wire 1 "( _GEN_61 $end
   $var wire 1 ") io_write_enable_reg $end
   $var wire 1 "4 _GEN_97 $end
   $var wire 1 "7 _GEN_64 $end
   $var wire 1 "< _GEN_85 $end
   $var wire 1 "= _GEN_58 $end
   $var wire 1 "C _GEN_70 $end
   $var wire 1 "G _GEN_37 $end
   $var wire 1 "L _GEN_9 $end
   $var wire 1 "V _GEN_67 $end
   $var wire 4 "[ _GEN_52 $end
   $var wire 1 "\ _GEN_46 $end
   $var wire 1 "` _GEN_10 $end
   $var wire 1 "j _GEN_25 $end
   $var wire 1 "k _GEN_13 $end
   $var wire 4 "m _GEN_40 $end
   $var wire 1 "q _GEN_34 $end
   $var wire 3 "s _GEN_28 $end
   $var wire 1 "v _GEN_96 $end
   $var wire 1 "{ _GEN_6 $end
   $var wire 1 #1 _GEN_90 $end
   $var wire 1 #4 _GEN_22 $end
   $var wire 1 #7 _GEN_78 $end
   $var wire 1 #= _GEN_99 $end
   $var wire 2 #A _GEN_16 $end
   $var wire 4 #E _GEN_84 $end
   $var wire 1 #I _GEN_66 $end
   $var wire 1 #Z _GEN_72 $end
   $var wire 1 #_ _GEN_93 $end
   $var wire 1 #d _GEN_5 $end
   $var wire 4 #g _GEN_60 $end
   $var wire 1 #h _GEN_54 $end
   $var wire 1 #i _GEN_69 $end
   $var wire 1 #q _GEN_75 $end
   $var wire 1 #r io_c_jump $end
   $var wire 1 #w _T $end
   $var wire 1 #| _GEN_81 $end
   $var wire 3 $* _GEN_36 $end
   $var wire 1 $. _GEN_21 $end
   $var wire 1 $0 _GEN_57 $end
   $var wire 1 $5 _GEN_42 $end
   $var wire 2 $9 _GEN_8 $end
   $var wire 3 $; _GEN_24 $end
   $var wire 1 $< _GEN_18 $end
   $var wire 1 $> _GEN_2 $end
   $var wire 4 $L _GEN_45 $end
   $var wire 1 $R io_stop $end
   $var wire 1 $T _GEN_51 $end
   $var wire 1 $U _GEN_30 $end
   $var wire 2 $[ _GEN_12 $end
   $var wire 1 $^ _GEN_33 $end
   $var wire 1 $` _GEN_89 $end
   $var wire 4 $k io_ALU_op $end
   $var wire 1 $o _GEN_80 $end
   $var wire 1 $x io_write_enable_dm $end
   $var wire 1 %! _GEN_62 $end
   $var wire 1 %% _GEN_83 $end
   $var wire 1 %& _GEN_77 $end
   $var wire 1 %. _GEN_98 $end
   $var wire 5 %/ io_opcode $end
   $var wire 1 %0 _GEN_50 $end
   $var wire 1 %5 _GEN_65 $end
   $var wire 4 %B _GEN_100 $end
   $var wire 1 %C _GEN_59 $end
   $var wire 4 %E _GEN_92 $end
   $var wire 1 %F _GEN_86 $end
   $var wire 4 %H _GEN_68 $end
   $var wire 1 %L _GEN_26 $end
   $var wire 1 %M io_u_jump $end
   $var wire 1 %Q _GEN_53 $end
   $var wire 1 %U _GEN_47 $end
   $var wire 1 %Y _GEN_74 $end
   $var wire 1 %] io_mux_sel2 $end
   $var wire 3 %_ _GEN_32 $end
  $upscope $end
  $scope module dataMemory $end
   $var wire 32 & _GEN_11 $end
   $var wire 32 5 io_testerDataWrite $end
   $var wire 1 L clock $end
   $var wire 1 V io_testerEnable $end
   $var wire 32 ", io_dataRead $end
   $var wire 32 ". io_dataWrite $end
   $var wire 1 #" io_testerWriteEnable $end
   $var wire 32 #& _GEN_5 $end
   $var wire 16 #X io_address $end
   $var wire 1 #a io_writeEnable $end
   $var wire 16 $A io_testerAddress $end
   $var wire 32 $F memory $end
   $var wire 32 $g io_testerDataRead $end
    $scope module memory $end
      $scope module _T_1 $end
       $var wire 16 . addr $end
       $var wire 16 D pipeline_addr_0 $end
       $var wire 1 \ en $end
       $var wire 32 "S data $end
       $var wire 32 #P pipeline_data_0 $end
       $var wire 1 $2 pipeline_valid_0 $end
       $var wire 1 $V valid $end
       $var wire 1 $l mask $end
       $var wire 1 %; clk $end
      $upscope $end
      $scope module _T $end
       $var wire 1 9 clk $end
       $var wire 16 #W addr $end
       $var wire 1 #b en $end
       $var wire 32 %+ data $end
      $upscope $end
      $scope module _T_3 $end
       $var wire 1 X pipeline_valid_0 $end
       $var wire 1 ^ en $end
       $var wire 1 _ mask $end
       $var wire 16 z pipeline_addr_0 $end
       $var wire 16 "z addr $end
       $var wire 1 #S clk $end
       $var wire 32 $- pipeline_data_0 $end
       $var wire 32 $Q data $end
       $var wire 1 %b valid $end
      $upscope $end
      $scope module _T_2 $end
       $var wire 1 } clk $end
       $var wire 16 "0 addr $end
       $var wire 32 #H data $end
       $var wire 1 $# en $end
      $upscope $end
    $upscope $end
  $upscope $end
  $scope module programCounter $end
   $var wire 16 B w3 $end
   $var wire 1 K io_stop $end
   $var wire 1 Z io_run $end
   $var wire 16 h io_programCounter $end
   $var wire 1 "+ io_jump $end
   $var wire 1 "F w2 $end
   $var wire 16 "d m1 $end
   $var wire 1 #- clock $end
   $var wire 1 $/ w1 $end
   $var wire 1 $X reset $end
   $var wire 16 %3 io_programCounterJump $end
   $var wire 16 %7 reg $end
   $var wire 16 %` m2 $end
  $upscope $end
  $scope module programMemory $end
   $var wire 16 l io_address $end
   $var wire 32 "H io_testerDataRead $end
   $var wire 16 "Y io_testerAddress $end
   $var wire 1 #. clock $end
   $var wire 1 $( io_testerEnable $end
   $var wire 32 $3 _GEN_5 $end
   $var wire 32 %( io_testerDataWrite $end
   $var wire 32 %) io_instructionRead $end
   $var wire 32 %R memory $end
   $var wire 1 %W io_testerWriteEnable $end
    $scope module memory $end
      $scope module _T $end
       $var wire 32 ] data $end
       $var wire 1 "l en $end
       $var wire 1 #U clk $end
       $var wire 16 $| addr $end
      $upscope $end
      $scope module _T_1 $end
       $var wire 1 a pipeline_valid_0 $end
       $var wire 32 c data $end
       $var wire 16 v pipeline_addr_0 $end
       $var wire 1 "! valid $end
       $var wire 1 #F en $end
       $var wire 32 #e pipeline_data_0 $end
       $var wire 1 #f mask $end
       $var wire 1 $) clk $end
       $var wire 16 $7 addr $end
      $upscope $end
      $scope module _T_2 $end
       $var wire 32 "U data $end
       $var wire 16 %' addr $end
       $var wire 1 %I clk $end
       $var wire 1 %[ en $end
      $upscope $end
    $upscope $end
  $upscope $end
  $scope module registerFile $end
   $var wire 32 " io_writeData $end
   $var wire 32 # _GEN_4 $end
   $var wire 32 $ _GEN_185 $end
   $var wire 32 % _GEN_191 $end
   $var wire 32 ) _GEN_143 $end
   $var wire 32 * _GEN_99 $end
   $var wire 5 + io_bSel $end
   $var wire 32 , _GEN_158 $end
   $var wire 32 / _GEN_90 $end
   $var wire 32 0 _GEN_164 $end
   $var wire 32 1 _GEN_170 $end
   $var wire 32 2 _GEN_179 $end
   $var wire 32 3 _GEN_78 $end
   $var wire 32 4 reg_2 $end
   $var wire 32 8 _GEN_16 $end
   $var wire 32 : _GEN_84 $end
   $var wire 32 > reg_29 $end
   $var wire 32 ? _GEN_93 $end
   $var wire 32 @ reg_20 $end
   $var wire 32 A _GEN_167 $end
   $var wire 32 F _GEN_51 $end
   $var wire 32 G _GEN_125 $end
   $var wire 32 I reg_14 $end
   $var wire 32 N _GEN_66 $end
   $var wire 32 O _GEN_72 $end
   $var wire 32 P _GEN_146 $end
   $var wire 32 R _GEN_173 $end
   $var wire 32 S _GEN_87 $end
   $var wire 32 T _GEN_131 $end
   $var wire 32 U _GEN_152 $end
   $var wire 32 Y _GEN_54 $end
   $var wire 32 ` reg_23 $end
   $var wire 32 d _GEN_81 $end
   $var wire 32 e _GEN_134 $end
   $var wire 32 f reg_17 $end
   $var wire 32 g _GEN_48 $end
   $var wire 32 m _GEN_75 $end
   $var wire 32 n _GEN_149 $end
   $var wire 32 o _GEN_155 $end
   $var wire 32 p _GEN_60 $end
   $var wire 32 r _GEN_33 $end
   $var wire 32 s _GEN_69 $end
   $var wire 32 t _GEN_113 $end
   $var wire 32 u _GEN_107 $end
   $var wire 32 w _GEN_140 $end
   $var wire 32 x _GEN_3 $end
   $var wire 32 y _GEN_15 $end
   $var wire 32 { _GEN_116 $end
   $var wire 32 ~ _GEN_21 $end
   $var wire 32 "" _GEN_36 $end
   $var wire 32 "$ _GEN_122 $end
   $var wire 32 "% _GEN_137 $end
   $var wire 32 "& reg_11 $end
   $var wire 32 "' _GEN_190 $end
   $var wire 1 "* clock $end
   $var wire 32 "- reg_26 $end
   $var wire 32 "/ _GEN_101 $end
   $var wire 32 "1 _GEN_57 $end
   $var wire 32 "3 _GEN_42 $end
   $var wire 32 "8 _GEN_92 $end
   $var wire 32 "9 io_aOut $end
   $var wire 32 ": _GEN_6 $end
   $var wire 32 "; _GEN_39 $end
   $var wire 32 "? _GEN_24 $end
   $var wire 32 "@ _GEN_30 $end
   $var wire 32 "A reg_4 $end
   $var wire 32 "B _GEN_104 $end
   $var wire 32 "D _GEN_18 $end
   $var wire 32 "E _GEN_172 $end
   $var wire 32 "I _GEN_45 $end
   $var wire 32 "J _GEN_187 $end
   $var wire 32 "K _GEN_110 $end
   $var wire 32 "M _GEN_119 $end
   $var wire 32 "N _GEN_12 $end
   $var wire 32 "O _GEN_9 $end
   $var wire 32 "P _GEN_80 $end
   $var wire 32 "Q _GEN_154 $end
   $var wire 32 "R _GEN_160 $end
   $var wire 32 "T _GEN_74 $end
   $var wire 32 "W _GEN_175 $end
   $var wire 32 "^ reg_7 $end
   $var wire 32 "b _GEN_27 $end
   $var wire 32 "c _GEN_181 $end
   $var wire 32 "f _GEN_89 $end
   $var wire 32 "g _GEN_95 $end
   $var wire 32 "i _GEN_169 $end
   $var wire 32 "o _GEN_98 $end
   $var wire 32 "p _GEN_178 $end
   $var wire 32 "t reg_10 $end
   $var wire 32 "u _GEN_136 $end
   $var wire 32 "w reg_19 $end
   $var wire 32 "x _GEN_163 $end
   $var wire 32 "| _GEN_77 $end
   $var wire 32 "} _GEN_157 $end
   $var wire 32 #! _GEN_184 $end
   $var wire 32 ## _GEN_62 $end
   $var wire 32 #$ _GEN_83 $end
   $var wire 32 #% _GEN_142 $end
   $var wire 32 #' reg_25 $end
   $var wire 32 #( _GEN_56 $end
   $var wire 32 #* reg_1 $end
   $var wire 32 #, reg_31 $end
   $var wire 32 #/ _GEN_50 $end
   $var wire 32 #0 _GEN_59 $end
   $var wire 32 #2 reg_13 $end
   $var wire 32 #3 _GEN_166 $end
   $var wire 32 #5 _GEN_124 $end
   $var wire 32 #8 _GEN_86 $end
   $var wire 32 #9 _GEN_130 $end
   $var wire 32 #: _GEN_139 $end
   $var wire 32 #; reg_28 $end
   $var wire 32 #< _GEN_44 $end
   $var wire 32 #? _GEN_71 $end
   $var wire 32 #@ _GEN_151 $end
   $var wire 32 #B _GEN_38 $end
   $var wire 32 #C _GEN_65 $end
   $var wire 32 #D _GEN_118 $end
   $var wire 32 #G _GEN_145 $end
   $var wire 32 #K _GEN_68 $end
   $var wire 32 #L _GEN_112 $end
   $var wire 32 #M _GEN_127 $end
   $var wire 32 #N _GEN_26 $end
   $var wire 32 #Q _GEN_8 $end
   $var wire 32 #R _GEN_133 $end
   $var wire 32 #T reg_16 $end
   $var wire 32 #V _GEN_106 $end
   $var wire 32 #Y _GEN_148 $end
   $var wire 32 #[ reg_22 $end
   $var wire 5 #\ io_aSel $end
   $var wire 32 #] _GEN_53 $end
   $var wire 32 #^ _GEN_47 $end
   $var wire 32 #` _GEN_183 $end
   $var wire 32 #c _GEN_29 $end
   $var wire 32 #k _GEN_121 $end
   $var wire 32 #l _GEN_2 $end
   $var wire 32 #m _GEN_35 $end
   $var wire 32 #n reg_9 $end
   $var wire 32 #o _GEN_115 $end
   $var wire 32 #p _GEN_109 $end
   $var wire 32 #u _GEN_177 $end
   $var wire 32 #v _GEN_20 $end
   $var wire 32 #x _GEN_100 $end
   $var wire 32 #y _GEN_14 $end
   $var wire 32 #z _GEN_41 $end
   $var wire 32 #{ reg_0 $end
   $var wire 32 #~ _GEN_17 $end
   $var wire 32 $! _GEN_23 $end
   $var wire 32 $" _GEN_171 $end
   $var wire 32 $$ _GEN_85 $end
   $var wire 32 $% _GEN_159 $end
   $var wire 32 $& _GEN_165 $end
   $var wire 32 $' _GEN_5 $end
   $var wire 32 $1 reg_3 $end
   $var wire 32 $4 _GEN_186 $end
   $var wire 32 $8 _GEN_91 $end
   $var wire 32 $: _GEN_103 $end
   $var wire 32 $= _GEN_180 $end
   $var wire 32 $@ _GEN_94 $end
   $var wire 32 $B _GEN_153 $end
   $var wire 32 $C _GEN_174 $end
   $var wire 32 $D _GEN_67 $end
   $var wire 1 $E reset $end
   $var wire 32 $G _GEN_168 $end
   $var wire 32 $H _GEN_73 $end
   $var wire 32 $I _GEN_88 $end
   $var wire 32 $J reg_6 $end
   $var wire 32 $K _GEN_189 $end
   $var wire 32 $N _GEN_147 $end
   $var wire 32 $P reg_21 $end
   $var wire 32 $S _GEN_11 $end
   $var wire 32 $W reg_30 $end
   $var wire 32 $Y reg_18 $end
   $var wire 1 $Z io_writeEnable $end
   $var wire 32 $\ _GEN_76 $end
   $var wire 32 $] _GEN_120 $end
   $var wire 32 $a _GEN_61 $end
   $var wire 32 $b _GEN_135 $end
   $var wire 32 $c _GEN_97 $end
   $var wire 32 $d reg_24 $end
   $var wire 32 $e _GEN_55 $end
   $var wire 32 $f _GEN_162 $end
   $var wire 32 $h _GEN_82 $end
   $var wire 32 $i io_bOut $end
   $var wire 32 $j _GEN_156 $end
   $var wire 32 $m _GEN_40 $end
   $var wire 32 $n _GEN_49 $end
   $var wire 32 $p _GEN_129 $end
   $var wire 32 $q _GEN_141 $end
   $var wire 32 $r _GEN_43 $end
   $var wire 32 $s _GEN_79 $end
   $var wire 32 $t _GEN_123 $end
   $var wire 32 $u _GEN_117 $end
   $var wire 32 $v _GEN_150 $end
   $var wire 32 $w _GEN_37 $end
   $var wire 5 $y io_writeSel $end
   $var wire 32 $z _GEN_64 $end
   $var wire 32 ${ _GEN_138 $end
   $var wire 32 $} reg_27 $end
   $var wire 32 $~ _GEN_22 $end
   $var wire 32 %" _GEN_70 $end
   $var wire 32 %$ reg_12 $end
   $var wire 32 %* _GEN_144 $end
   $var wire 32 %, _GEN_58 $end
   $var wire 32 %- _GEN_102 $end
   $var wire 32 %1 _GEN_52 $end
   $var wire 32 %2 _GEN_111 $end
   $var wire 32 %4 _GEN_25 $end
   $var wire 32 %8 _GEN_132 $end
   $var wire 32 %9 _GEN_126 $end
   $var wire 32 %: reg_15 $end
   $var wire 32 %< _GEN_10 $end
   $var wire 32 %= _GEN_7 $end
   $var wire 32 %> _GEN_46 $end
   $var wire 32 %? _GEN_188 $end
   $var wire 32 %@ _GEN_105 $end
   $var wire 32 %A _GEN_19 $end
   $var wire 32 %D reg_5 $end
   $var wire 32 %G _GEN_28 $end
   $var wire 32 %J _GEN_96 $end
   $var wire 32 %K _GEN_161 $end
   $var wire 32 %N _GEN_1 $end
   $var wire 32 %O _GEN_34 $end
   $var wire 32 %P reg_8 $end
   $var wire 32 %X _GEN_108 $end
   $var wire 32 %\ _GEN_13 $end
   $var wire 32 %^ _GEN_176 $end
   $var wire 32 %a _GEN_182 $end
   $var wire 32 %c _GEN_114 $end
  $upscope $end
  $scope module alu $end
   $var wire 1 ' io_boolVal $end
   $var wire 1 7 _GEN_1 $end
   $var wire 4 J io_op $end
   $var wire 1 M _GEN_4 $end
   $var wire 32 "5 io_a $end
   $var wire 32 "_ io_result $end
   $var wire 1 "e _GEN_6 $end
   $var wire 1 "n _GEN_0 $end
   $var wire 64 "y _GEN_9 $end
   $var wire 1 #) _T $end
   $var wire 32 #6 _GEN_3 $end
   $var wire 1 $6 _GEN_2 $end
   $var wire 32 $M _GEN_5 $end
   $var wire 1 $_ _GEN_8 $end
   $var wire 32 %# io_b $end
   $var wire 64 %T _GEN_7 $end
  $upscope $end
$upscope $end
$enddefinitions $end
$dumpvars
b00 #A
1#f
b00000000000000000000000000000000 ${
b00000000000000000000000000000000 %\
0%W
b00000000000000000000000000000000 %?
b00000000000000000000000000000000 $I
b00000000000000000000000000000000 %*
0=
0%%
b00000000000000000000000000000000 #K
b00000000000000000000000000000000 "U
b00000000000000000000000000000000 #6
b00000000000000000000000000000000 r
b00000000000000000000000000000000 "M
0#1
b00000000000000000000000000000000 "8
b00000 %/
b0000000000000000 B
0$U
0%6
0"v
b00000000000000000000000000000000 "I
b00000000000000000000000000000000 #*
1_
0"r
0#S
b00000000000000000000000000000000 w
0a
0L
b00000000000000000000000000000000 %9
b00000000000000000000000000000000 $m
b00000000000000000000000000000000 %N
b00000000000000000000000000000000 0
b00000000000000000000000000000000 #o
b00000000000000000000000000000000 $P
b00000000000000000000000000000000 %1
b00000000000000000000000000000000 #(
0"n
0#O
b00000000000000000000000000000000 s
b00000000000000000000000000000000 $~
b00000000000000000000000000000000 $i
b00000000000000000000000000000000 %J
0H
0%b
b00000000000000000000000000000000 #k
b00000000000000000000000000000000 "u
b00000000000000000000000000000000 #V
b00000000000000000000000000000000 %-
b00000000000000000000000000000000 $
b00000000000000000000000000000000 #9
b00000000000000000000000000000000 #$
0$0
0"<
b00000000000000000000000000000000 A
b00000000000000000000000000000000 "&
b000 %_
0%V
0$`
0#w
0$X
0#b
0"l
0$.
b00000000000000000000000000000000 q
b00000000000000000000000000000000 T
b0000000000000000 .
0"2
b00000000000000000000000000000000 ?
b00000000000000000000000000000000 $J
b00000000000000000000000000000000 %+
0#s
0$T
0%5
0$?
b00000000000000000000000000000000 m
0"`
b00000000000000000000000000000000 e
b0000000000000000 %`
0"C
b00000000000000000000000000000000 #z
b00000000000000000000000000000000 #e
b00 ;
b00000000000000000000000000000000 $F
b00000000000000000000000000000000 %<
b00000000000000000000000000000000 P
b00000000000000000000000000000000 3
b0000000000000000 "Y
b00000000000000000000000000000000 "g
b00000000000000000000000000000000 #H
b00000000000000000000000000000000 "5
b00000000000000000000000000000000 #v
b00000000000000000000000000000000 $W
b00000000000000000000000000000000 %8
0"*
b00000000000000000000000000000000 /
b00000000000000000000000000000000 "c
b00000000000000000000000000000000 #D
b0000000000000000 $,
b00000000000000000000000000000000 $%
b00000000000000000000000000000000 "1
b0000 %B
b0000 "m
b00000000000000000000000000000000 $K
b00000000000000000000000000000000 %,
b00000000000000000000000000000000 "W
b00000000000000000000000000000000 #8
b00000000000000000000000000000000 t
b00000000000000000000000000000000 $j
b00000000000000000000000000000000 %K
b00000000000000000000000000000000 "%
0"=
b00000000000000000000000000000000 $8
0%]
0%U
0$_
b00000000000000000000000000000000 $G
b00000000000000000000000000000000 %(
0#a
0"k
b00000000000000000000000000000000 "S
b00000000000000000000000000000000 p
0Z
b00000000000000000000000000000000 $f
b00000000000000000000000000000000 %G
b00000000000000000000000000000000 S
b00000000000000000000000000000000 >
0k
b00000000000000000000000000000000 #y
09
b00000000000000000000000000000000 2
0"~
b00000000000000000000000000000000 "f
b00000000000000000000000000000000 #G
b00000000000000000000000000000000 "Q
b00000000000000000000000000000000 #2
0#_
0%!
0|
b0000 "[
b00000000000000000000000000000000 #u
0-
b00000000000000000000000000000000 "w
b00000000000000000000000000000000 "b
b00000000000000000000000000000000 #C
b00000000000000000000000000000000 $$
0"]
b00000000000000000000000000000000 "E
b00000000000000000000000000000000 #&
b0000000000000000 $|
0$<
0"+
0%C
b00000000000000000000000000000000 "^
b00000000000000000000000000000000 {
b00000000000000000000000000000000 #?
b00000000000000000000000000000000 "A
b00000000000000000000000000000000 ",
b00000000000000000000000000000000 "$
b00000000000000000000000000000000 ,
b00 $[
b000 "s
b00000000000000000000000000000000 o
b00000000000000000000000000000000 $z
0#.
b00000000000000000000000000000000 $e
0<
b00000000000000000000000000000000 $H
b00000000000000000000000000000000 %)
0'
b00000000000000000000000000000000 #R
b00000000000000000000000000000000 "i
b00000000000000000000000000000000 "T
b00000000000000000000000000000000 "?
b00000000000000000000000000000000 #5
b00000000000000000000000000000000 #J
b00000000000000000000000000000000 $3
b00000000000000000000000000000000 ""
0"{
0j
b00000000000000000000000000000000 $v
b00000000000000000000000000000000 $a
0M
b00000000000000000000000000000000 #x
b00000000000000000000000000000000 #c
b00000000000000000000000000000000 $D
b00000000000000000000000000000000 $Y
b00000000000000000000000000000000 %:
b00000000000000000000000000000000 $'
b00000000000000000000000000000000 "P
b00000000000000000000000000000000 N
b00000000000000000000000000000000 #N
b00000000000000000000000000000000 "3
b0000000000000000000000000000000000000000000000000000000000000000 %T
b00000 #\
0#Z
b00000000000000000000000000000000 ~
0}
b00000000000000000000000000000000 $t
0"q
0"\
0K
0"G
0#=
b0000 $L
0$/
0"X
0\
b00000000000000000000000000000000 ]
b00000000000000000000000000000000 $h
b00000000000000000000000000000000 $S
b00000000000000000000000000000000 %4
b00000000000000000000000000000000 @
b00000000000000000000000000000000 "t
b00000000000000000000000000000000 "_
b00000000000000000000000000000000 #@
b00000000000000000000000000000000 $!
b00000000000000000000000000000000 "B
b00000000000000000000000000000000 ##
b00000000000000000000000000000000 n
b00000000000000000000000000000000 Y
0"L
0"7
0#-
b00000000000000000000000000000000 $d
b00000000000000000000000000000000 #n
b00000000000000000000000000000000 "p
b00000000000000000000000000000000 #Q
b0000000000000000 #X
0X
b0000000000000000 $A
b0000000000000000 %7
b0000000000000000 "0
0$x
0%Y
0%Q
0$>
b00000000000000000000000000000000 $&
0$)
b00000000000000000000000000000000 $w
b00000000000000000000000000000000 %X
0V
b00000000000000000000000000000000 O
b00000000000000000000000000000000 :
0#+
b0000000000000000 $7
0%M
0$O
0%0
b00000000000000000000000000000000 $"
b0000000000000000 l
b00000000000000000000000000000000 $s
0"F
b00000000000000000000000000000000 `
b00000000000000000000000000000000 ".
b00000000000000000000000000000000 #`
b00000000000000000000000000000000 %"
0")
0[
b00000000000000000000000000000000 $g
0%.
b00000000000000000000000000000000 #T
0W
b00000000000000000000000000000000 $c
b00000000000000000000000000000000 %D
0$^
0#}
0#h
b00000000000000000000000000000000 "o
b0000000000000000 #W
0"j
b00000000000000000000000000000000 %c
b00000000000000000000000000000000 "R
b00000000000000000000000000000000 #3
b00000000000000000000000000000000 #P
b00000000000000000000000000000000 $1
b00000000000000000000000000000000 (
0$o
0$Z
0%;
06
0#d
0$E
0$(
0%&
b00000000000000000000000000000000 $B
b00000000000000000000000000000000 %#
b00000000000000000000000000000000 "N
0"4
b00000000000000000000000000000000 #/
b00000000000000000000000000000000 #L
b00000000000000000000000000000000 $-
b00000000000000000000000000000000 "9
0!
b0000 $k
b00000000000000000000000000000000 $r
b0000 J
0Q
b00000000000000000000000000000000 #t
0"(
b00000000000000000000000000000000 $@
b00000000000000000000000000000000 #B
b00000000000000000000000000000000 "D
b00000000000000000000000000000000 "/
b00000000000000000000000000000000 #%
b0000000000000000 ">
1$l
b0000 %H
b0000000000000000000000000000000000000000000000000000000000000000 "y
0#i
0b
0"V
0#7
b00000000000000000000000000000000 $n
0E
b00000000000000000000000000000000 #p
b00000000000000000000000000000000 $Q
b00000000000000000000000000000000 %2
b00000000000000000000000000000000 )
b00000000000000000000000000000000 $4
b00000000000000000000000000000000 #>
b00000000000000000000000000000000 %O
b0000000000000000 "d
b00000000000000000000000000000000 #[
b00000000000000000000000000000000 "@
b00000000000000000000000000000000 #!
b00000000000000000000000000000000 "H
0%[
0#|
b0000 #g
b0000000000000000 z
0$+
b00000000000000000000000000000000 "'
b00 $9
b0000000000000000 v
b00000000000000000000000000000000 $}
b00000000000000000000000000000000 %^
0i
0"e
0#F
b0000000000000000 D
b00000000000000000000000000000000 $u
07
b00000000000000000000000000000000 8
b00000000000000000000000000000000 %A
b00000000000000000000000000000000 #M
b00000000000000000000000000000000 $C
b00000000000000000000000000000000 %$
b00000000000000000000000000000000 "O
b00000000000000000000000000000000 ":
b00000000000000000000000000000000 #0
b0000000000000000 %3
b00000000000000000000000000000000 U
b00000000000000000000000000000000 #
0#)
b00000000000000000000000000000000 %Z
0"a
0$#
b00000000000000000000000000000000 f
b00000000000000000000000000000000 $q
b00000000000000000000000000000000 #{
b00000000000000000000000000000000 I
b00000000000000000000000000000000 4
b00000000000000000000000000000000 $\
b00000000000000000000000000000000 %=
b0000000000000000 %'
b00000 +
b00000000000000000000000000000000 %R
b00000000000000000000000000000000 "}
b00000000000000000000000000000000 "h
b00000000000000000000000000000000 #^
b00000000000000000000000000000000 "K
b00000000000000000000000000000000 #,
0%I
0#r
b000 $*
b0000 "#
0#j
0#U
0$6
b0000000000000000 h
b00000000000000000000000000000000 y
b00000000000000000000000000000000 %P
b00000000000000000000000000000000 d
b00000000000000000000000000000000 G
b00000000000000000000000000000000 $=
b00000000000000000000000000000000 *
b000 $;
b0000 %E
0$2
b00000000000000000000000000000000 u
0#I
0#4
b00000000000000000000000000000000 ";
b0000000000000000 %S
b00000000000000000000000000000000 C
0"6
0"!
b00000000000000000000000000000000 %a
b00000000000000000000000000000000 &
b00000000000000000000000000000000 #m
b00000000000000000000000000000000 "Z
b00000000000000000000000000000000 #;
b00000000000000000000000000000000 $N
b0000 #E
b00000 $y
b00000000000000000000000000000000 #~
b00000000000000000000000000000000 %@
b00000000000000000000000000000000 "
b0000000000000000 "z
b00000000000000000000000000000000 $p
0%L
0$V
b00000000000000000000000000000000 "|
b00000000000000000000000000000000 #]
b00000000000000000000000000000000 "J
b00000000000000000000000000000000 g
b00000000000000000000000000000000 R
b00000000000000000000000000000000 $]
b00000000000000000000000000000000 "-
b00000000000000000000000000000000 %>
b00000000000000000000000000000000 5
0#q
b00000000000000000000000000000000 "x
b00000000000000000000000000000000 #Y
b00000000000000000000000000000000 $:
0$5
0$R
b00000000000000000000000000000000 x
b00000000000000000000000000000000 #'
b00000000000000000000000000000000 c
0#"
b00000000000000000000000000000000 #<
b00000000000000000000000000000000 F
b00000000000000000000000000000000 1
0^
0%F
b00000000000000000000000000000000 $b
b00000000000000000000000000000000 #l
b00000000000000000000000000000000 $M
b00000000000000000000000000000000 %
b00000000000000000000000000000000 #:
$end
#0
1%[
1$/
b0000000000000001 B
1$E
1$X
1"F
1E
1%6
b0000000000000001 "d
1$#
#1
1%I
1#-
1#j
1#U
1%;
1}
1$)
19
1#.
1L
1"*
1#S
#6
0%I
0#-
0#j
0#U
0%;
0}
0$)
09
0#.
0L
0"*
0#S
#11
1%I
1#-
1#j
1#U
1%;
1}
1$)
19
1#.
1L
1"*
1#S
#16
0%I
0#-
0#j
0#U
0%;
0}
0$)
09
0#.
0L
0"*
0#S
#21
1%I
1#-
1#j
1#U
1%;
1}
1$)
19
1#.
1L
1"*
1#S
#26
0%I
0#-
0#j
0#U
0%;
0}
0$)
09
0#.
0L
0"*
0#S
#31
1%I
1#-
1#j
1#U
1%;
1}
1$)
19
1#.
1L
1"*
1#S
#36
0%I
0#-
0#j
0#U
0%;
0}
0$)
09
0#.
0L
0"*
0#S
#41
1%I
1#-
1#j
1#U
1%;
1}
1$)
19
1#.
1L
1"*
1#S
#46
0%I
1Q
0#j
0#U
0$E
1#"
0%;
0}
0$)
1#+
0L
0%6
1\
1$V
0$#
0#-
0$X
1V
09
0#.
0"*
0#S
1#b
#51
1%I
1$2
1#-
1#j
1#U
1%;
1}
1$)
19
1#.
1L
1"*
1#S
#56
0%I
0#j
0#U
0%;
b0000000000000001 .
0}
0$)
b0000000000000001 #W
0L
0#-
b0000000000000001 $A
b0000000000000001 $,
09
0#.
0"*
0#S
#61
1%I
1#-
1#j
1#U
1%;
1}
b0000000000000001 D
1$)
19
1#.
1L
1"*
1#S
#66
0%I
0#j
0#U
0%;
b0000000000000010 .
0}
0$)
b0000000000000010 #W
0L
0#-
b0000000000000010 $A
b0000000000000010 $,
09
0#.
0"*
0#S
#71
1%I
1#-
1#j
1#U
1%;
1}
b0000000000000010 D
1$)
19
1#.
1L
1"*
1#S
#76
0%I
0#j
0#U
0%;
b0000000000000011 .
0}
0$)
b0000000000000011 #W
0L
0#-
b0000000000000011 $A
b0000000000000011 $,
09
0#.
0"*
0#S
