generated/CPUTop.vcd
$date
2021-11-03T17:33+0000
$end
$version
0.2
$end
$comment

$end
$timescale 1ns  $end
$scope module CPUTop $end
 $var wire 32 ) io_testerDataMemDataRead $end
 $var wire 1 F _T $end
 $var wire 1 Q io_testerDataMemWriteEnable $end
 $var wire 1 X registerFile $end
 $var wire 1 "3 io_testerProgMemEnable $end
 $var wire 1 "S io_testerProgMemWriteEnable $end
 $var wire 32 "U io_testerProgMemDataWrite $end
 $var wire 1 "X programMemory $end
 $var wire 1 "\ programCounter $end
 $var wire 32 "c io_testerDataMemDataWrite $end
 $var wire 1 "w alu $end
 $var wire 1 #% io_testerDataMemEnable $end
 $var wire 1 #` clock $end
 $var wire 1 #| dataMemory $end
 $var wire 16 #} io_testerDataMemAddress $end
 $var wire 1 $2 io_done $end
 $var wire 1 $C controlUnit $end
 $var wire 1 %( reset $end
 $var wire 16 %C io_testerProgMemAddress $end
 $var wire 1 %F io_run $end
 $var wire 32 %J io_testerProgMemDataRead $end
  $scope module controlUnit $end
   $var wire 1 ! _GEN_29 $end
   $var wire 4 ' _GEN_56 $end
   $var wire 1 . _GEN_14 $end
   $var wire 1 7 _GEN_41 $end
   $var wire 1 : _GEN_35 $end
   $var wire 2 = _GEN_20 $end
   $var wire 1 > _GEN_38 $end
   $var wire 1 ? _GEN_17 $end
   $var wire 1 \ io_mux_sel1 $end
   $var wire 1 c _GEN_73 $end
   $var wire 4 j _GEN_88 $end
   $var wire 1 y _GEN_55 $end
   $var wire 1 { _GEN_82 $end
   $var wire 1 "" _GEN_76 $end
   $var wire 1 "' _GEN_61 $end
   $var wire 1 "( io_write_enable_reg $end
   $var wire 4 "4 _GEN_64 $end
   $var wire 1 "9 _GEN_85 $end
   $var wire 1 ": _GEN_58 $end
   $var wire 1 "? _GEN_70 $end
   $var wire 1 "@ _GEN_79 $end
   $var wire 1 "H _GEN_9 $end
   $var wire 1 "V _GEN_52 $end
   $var wire 1 "W _GEN_46 $end
   $var wire 1 "[ _GEN_10 $end
   $var wire 1 "e _GEN_25 $end
   $var wire 1 "f _GEN_13 $end
   $var wire 4 "h _GEN_40 $end
   $var wire 1 "l _GEN_34 $end
   $var wire 4 "m _GEN_28 $end
   $var wire 1 "t _GEN_6 $end
   $var wire 1 ## _GEN_49 $end
   $var wire 1 #- _GEN_22 $end
   $var wire 1 #0 _GEN_78 $end
   $var wire 2 #8 _GEN_16 $end
   $var wire 1 #< _GEN_84 $end
   $var wire 1 #@ _GEN_66 $end
   $var wire 4 #O _GEN_72 $end
   $var wire 1 #P _GEN_87 $end
   $var wire 1 #Z _GEN_5 $end
   $var wire 1 #] _GEN_60 $end
   $var wire 1 #^ _GEN_54 $end
   $var wire 1 #_ _GEN_69 $end
   $var wire 1 #g io_c_jump $end
   $var wire 4 #i _GEN_48 $end
   $var wire 1 #k _T $end
   $var wire 1 #p _GEN_81 $end
   $var wire 1 #{ _GEN_63 $end
   $var wire 1 $! _GEN_21 $end
   $var wire 1 $# _GEN_57 $end
   $var wire 1 $( _GEN_42 $end
   $var wire 2 $, _GEN_8 $end
   $var wire 3 $. _GEN_24 $end
   $var wire 1 $/ _GEN_18 $end
   $var wire 1 $1 _GEN_2 $end
   $var wire 1 $7 _GEN_39 $end
   $var wire 1 $@ _GEN_45 $end
   $var wire 1 $F io_stop $end
   $var wire 1 $H _GEN_30 $end
   $var wire 2 $O _GEN_12 $end
   $var wire 4 $R _GEN_33 $end
   $var wire 4 $_ io_ALU_op $end
   $var wire 4 $c _GEN_80 $end
   $var wire 1 $l io_write_enable_dm $end
   $var wire 1 $s _GEN_62 $end
   $var wire 1 $w _GEN_77 $end
   $var wire 5 %! io_opcode $end
   $var wire 1 %" _GEN_50 $end
   $var wire 1 %' _GEN_65 $end
   $var wire 1 %3 _GEN_71 $end
   $var wire 1 %6 _GEN_86 $end
   $var wire 1 %8 _GEN_68 $end
   $var wire 1 %< _GEN_26 $end
   $var wire 1 %= io_u_jump $end
   $var wire 1 %A _GEN_53 $end
   $var wire 1 %E _GEN_47 $end
   $var wire 1 %I _GEN_74 $end
   $var wire 1 %M io_mux_sel2 $end
  $upscope $end
  $scope module dataMemory $end
   $var wire 32 & _GEN_11 $end
   $var wire 32 6 io_testerDataWrite $end
   $var wire 1 L clock $end
   $var wire 1 V io_testerEnable $end
   $var wire 32 "+ io_dataRead $end
   $var wire 32 "- io_dataWrite $end
   $var wire 1 "y io_testerWriteEnable $end
   $var wire 32 "} _GEN_5 $end
   $var wire 16 #M io_address $end
   $var wire 1 #W io_writeEnable $end
   $var wire 16 $4 io_testerAddress $end
   $var wire 32 $: memory $end
   $var wire 32 $[ io_testerDataRead $end
    $scope module memory $end
      $scope module _T_1 $end
       $var wire 16 / addr $end
       $var wire 16 E pipeline_addr_0 $end
       $var wire 1 ] en $end
       $var wire 32 "O data $end
       $var wire 32 #E pipeline_data_0 $end
       $var wire 1 $% pipeline_valid_0 $end
       $var wire 1 $I valid $end
       $var wire 1 $` mask $end
       $var wire 1 %- clk $end
      $upscope $end
      $scope module _T $end
       $var wire 1 ; clk $end
       $var wire 16 #L addr $end
       $var wire 1 #X en $end
       $var wire 32 $| data $end
      $upscope $end
      $scope module _T_3 $end
       $var wire 1 Y pipeline_valid_0 $end
       $var wire 1 _ en $end
       $var wire 1 ` mask $end
       $var wire 16 x pipeline_addr_0 $end
       $var wire 16 "s addr $end
       $var wire 1 #H clk $end
       $var wire 32 #~ pipeline_data_0 $end
       $var wire 32 $E data $end
       $var wire 1 %Q valid $end
      $upscope $end
      $scope module _T_2 $end
       $var wire 1 | clk $end
       $var wire 16 "/ addr $end
       $var wire 32 #? data $end
       $var wire 1 #t en $end
      $upscope $end
    $upscope $end
  $upscope $end
  $scope module programCounter $end
   $var wire 16 D w3 $end
   $var wire 1 K io_stop $end
   $var wire 1 [ io_run $end
   $var wire 16 i io_programCounter $end
   $var wire 1 "* io_jump $end
   $var wire 1 "C w2 $end
   $var wire 16 "_ m1 $end
   $var wire 1 #' clock $end
   $var wire 1 $" w1 $end
   $var wire 1 $L reset $end
   $var wire 16 %% io_programCounterJump $end
   $var wire 16 %) reg $end
   $var wire 16 %O m2 $end
  $upscope $end
  $scope module programMemory $end
   $var wire 16 k io_address $end
   $var wire 32 "D io_testerDataRead $end
   $var wire 16 "T io_testerAddress $end
   $var wire 1 #( clock $end
   $var wire 1 #y io_testerEnable $end
   $var wire 32 $& _GEN_5 $end
   $var wire 32 $y io_testerDataWrite $end
   $var wire 32 $z io_instructionRead $end
   $var wire 32 %B memory $end
   $var wire 1 %G io_testerWriteEnable $end
    $scope module memory $end
      $scope module _T $end
       $var wire 32 ^ data $end
       $var wire 1 "g en $end
       $var wire 1 #J clk $end
       $var wire 16 $p addr $end
      $upscope $end
      $scope module _T_1 $end
       $var wire 1 b pipeline_valid_0 $end
       $var wire 32 d data $end
       $var wire 16 t pipeline_addr_0 $end
       $var wire 1 ~ valid $end
       $var wire 1 #= en $end
       $var wire 32 #[ pipeline_data_0 $end
       $var wire 1 #\ mask $end
       $var wire 1 #z clk $end
       $var wire 16 $* addr $end
      $upscope $end
      $scope module _T_2 $end
       $var wire 32 "Q data $end
       $var wire 16 $x addr $end
       $var wire 1 %9 clk $end
       $var wire 1 %K en $end
      $upscope $end
    $upscope $end
  $upscope $end
  $scope module registerFile $end
   $var wire 32 " io_writeData $end
   $var wire 32 # _GEN_4 $end
   $var wire 32 $ _GEN_185 $end
   $var wire 32 % _GEN_191 $end
   $var wire 32 * _GEN_143 $end
   $var wire 32 + _GEN_99 $end
   $var wire 5 , io_bSel $end
   $var wire 32 - _GEN_158 $end
   $var wire 32 0 _GEN_90 $end
   $var wire 32 1 _GEN_164 $end
   $var wire 32 2 _GEN_170 $end
   $var wire 32 3 _GEN_179 $end
   $var wire 32 4 _GEN_78 $end
   $var wire 32 5 reg_2 $end
   $var wire 32 9 _GEN_16 $end
   $var wire 32 < _GEN_84 $end
   $var wire 32 @ reg_29 $end
   $var wire 32 A _GEN_93 $end
   $var wire 32 B reg_20 $end
   $var wire 32 C _GEN_167 $end
   $var wire 32 G _GEN_51 $end
   $var wire 32 H _GEN_125 $end
   $var wire 32 I reg_14 $end
   $var wire 32 N _GEN_66 $end
   $var wire 32 O _GEN_72 $end
   $var wire 32 P _GEN_146 $end
   $var wire 32 R _GEN_173 $end
   $var wire 32 S _GEN_87 $end
   $var wire 32 T _GEN_131 $end
   $var wire 32 U _GEN_152 $end
   $var wire 32 Z _GEN_54 $end
   $var wire 32 a reg_23 $end
   $var wire 32 e _GEN_81 $end
   $var wire 32 f _GEN_134 $end
   $var wire 32 g reg_17 $end
   $var wire 32 h _GEN_48 $end
   $var wire 32 l _GEN_75 $end
   $var wire 32 m _GEN_149 $end
   $var wire 32 n _GEN_155 $end
   $var wire 32 o _GEN_60 $end
   $var wire 32 p _GEN_33 $end
   $var wire 32 q _GEN_69 $end
   $var wire 32 r _GEN_113 $end
   $var wire 32 s _GEN_107 $end
   $var wire 32 u _GEN_140 $end
   $var wire 32 v _GEN_3 $end
   $var wire 32 w _GEN_15 $end
   $var wire 32 z _GEN_116 $end
   $var wire 32 } _GEN_21 $end
   $var wire 32 "! _GEN_36 $end
   $var wire 32 "# _GEN_122 $end
   $var wire 32 "$ _GEN_137 $end
   $var wire 32 "% reg_11 $end
   $var wire 32 "& _GEN_190 $end
   $var wire 1 ") clock $end
   $var wire 32 ", reg_26 $end
   $var wire 32 ". _GEN_101 $end
   $var wire 32 "0 _GEN_57 $end
   $var wire 32 "1 _GEN_42 $end
   $var wire 32 "5 _GEN_92 $end
   $var wire 32 "6 io_aOut $end
   $var wire 32 "7 _GEN_6 $end
   $var wire 32 "8 _GEN_39 $end
   $var wire 32 "; _GEN_24 $end
   $var wire 32 "< _GEN_30 $end
   $var wire 32 "= reg_4 $end
   $var wire 32 "> _GEN_104 $end
   $var wire 32 "A _GEN_18 $end
   $var wire 32 "B _GEN_172 $end
   $var wire 32 "E _GEN_45 $end
   $var wire 32 "F _GEN_187 $end
   $var wire 32 "G _GEN_110 $end
   $var wire 32 "I _GEN_119 $end
   $var wire 32 "J _GEN_12 $end
   $var wire 32 "K _GEN_9 $end
   $var wire 32 "L _GEN_80 $end
   $var wire 32 "M _GEN_154 $end
   $var wire 32 "N _GEN_160 $end
   $var wire 32 "P _GEN_74 $end
   $var wire 32 "R _GEN_175 $end
   $var wire 32 "Y reg_7 $end
   $var wire 32 "] _GEN_27 $end
   $var wire 32 "^ _GEN_181 $end
   $var wire 32 "a _GEN_89 $end
   $var wire 32 "b _GEN_95 $end
   $var wire 32 "d _GEN_169 $end
   $var wire 32 "j _GEN_98 $end
   $var wire 32 "k _GEN_178 $end
   $var wire 32 "n reg_10 $end
   $var wire 32 "o _GEN_136 $end
   $var wire 32 "p reg_19 $end
   $var wire 32 "q _GEN_163 $end
   $var wire 32 "u _GEN_77 $end
   $var wire 32 "v _GEN_157 $end
   $var wire 32 "x _GEN_184 $end
   $var wire 32 "z _GEN_62 $end
   $var wire 32 "{ _GEN_83 $end
   $var wire 32 "| _GEN_142 $end
   $var wire 32 "~ reg_25 $end
   $var wire 32 #! _GEN_56 $end
   $var wire 32 #$ reg_1 $end
   $var wire 32 #& reg_31 $end
   $var wire 32 #) _GEN_50 $end
   $var wire 32 #* _GEN_59 $end
   $var wire 32 #+ reg_13 $end
   $var wire 32 #, _GEN_166 $end
   $var wire 32 #. _GEN_124 $end
   $var wire 32 #1 _GEN_86 $end
   $var wire 32 #2 _GEN_130 $end
   $var wire 32 #3 _GEN_139 $end
   $var wire 32 #4 reg_28 $end
   $var wire 32 #5 _GEN_44 $end
   $var wire 32 #6 _GEN_71 $end
   $var wire 32 #7 _GEN_151 $end
   $var wire 32 #9 _GEN_38 $end
   $var wire 32 #: _GEN_65 $end
   $var wire 32 #; _GEN_118 $end
   $var wire 32 #> _GEN_145 $end
   $var wire 32 #A _GEN_68 $end
   $var wire 32 #B _GEN_112 $end
   $var wire 32 #C _GEN_127 $end
   $var wire 32 #D _GEN_26 $end
   $var wire 32 #F _GEN_8 $end
   $var wire 32 #G _GEN_133 $end
   $var wire 32 #I reg_16 $end
   $var wire 32 #K _GEN_106 $end
   $var wire 32 #N _GEN_148 $end
   $var wire 32 #Q reg_22 $end
   $var wire 5 #S io_aSel $end
   $var wire 32 #T _GEN_53 $end
   $var wire 32 #U _GEN_47 $end
   $var wire 32 #V _GEN_183 $end
   $var wire 32 #Y _GEN_29 $end
   $var wire 32 #a _GEN_121 $end
   $var wire 32 #b _GEN_2 $end
   $var wire 32 #c _GEN_35 $end
   $var wire 32 #d reg_9 $end
   $var wire 32 #e _GEN_115 $end
   $var wire 32 #f _GEN_109 $end
   $var wire 32 #h _GEN_177 $end
   $var wire 32 #j _GEN_20 $end
   $var wire 32 #l _GEN_100 $end
   $var wire 32 #m _GEN_14 $end
   $var wire 32 #n _GEN_41 $end
   $var wire 32 #o reg_0 $end
   $var wire 32 #q _GEN_17 $end
   $var wire 32 #r _GEN_23 $end
   $var wire 32 #s _GEN_171 $end
   $var wire 32 #u _GEN_85 $end
   $var wire 32 #v _GEN_159 $end
   $var wire 32 #w _GEN_165 $end
   $var wire 32 #x _GEN_5 $end
   $var wire 32 $$ reg_3 $end
   $var wire 32 $' _GEN_186 $end
   $var wire 32 $+ _GEN_91 $end
   $var wire 32 $- _GEN_103 $end
   $var wire 32 $0 _GEN_180 $end
   $var wire 32 $3 _GEN_94 $end
   $var wire 32 $5 _GEN_153 $end
   $var wire 32 $6 _GEN_174 $end
   $var wire 32 $8 _GEN_67 $end
   $var wire 1 $9 reset $end
   $var wire 32 $; _GEN_168 $end
   $var wire 32 $< _GEN_73 $end
   $var wire 32 $= _GEN_88 $end
   $var wire 32 $> reg_6 $end
   $var wire 32 $? _GEN_189 $end
   $var wire 32 $B _GEN_147 $end
   $var wire 32 $D reg_21 $end
   $var wire 32 $G _GEN_11 $end
   $var wire 32 $K reg_30 $end
   $var wire 32 $M reg_18 $end
   $var wire 1 $N io_writeEnable $end
   $var wire 32 $P _GEN_76 $end
   $var wire 32 $Q _GEN_120 $end
   $var wire 32 $T _GEN_61 $end
   $var wire 32 $U _GEN_135 $end
   $var wire 32 $V _GEN_97 $end
   $var wire 32 $W reg_24 $end
   $var wire 32 $Y _GEN_55 $end
   $var wire 32 $Z _GEN_162 $end
   $var wire 32 $\ _GEN_82 $end
   $var wire 32 $] io_bOut $end
   $var wire 32 $^ _GEN_156 $end
   $var wire 32 $a _GEN_40 $end
   $var wire 32 $b _GEN_49 $end
   $var wire 32 $d _GEN_129 $end
   $var wire 32 $e _GEN_141 $end
   $var wire 32 $f _GEN_43 $end
   $var wire 32 $g _GEN_79 $end
   $var wire 32 $h _GEN_123 $end
   $var wire 32 $i _GEN_117 $end
   $var wire 32 $j _GEN_150 $end
   $var wire 32 $k _GEN_37 $end
   $var wire 5 $m io_writeSel $end
   $var wire 32 $n _GEN_64 $end
   $var wire 32 $o _GEN_138 $end
   $var wire 32 $q reg_27 $end
   $var wire 32 $r _GEN_22 $end
   $var wire 32 $t _GEN_70 $end
   $var wire 32 $v reg_12 $end
   $var wire 32 ${ _GEN_144 $end
   $var wire 32 $} _GEN_58 $end
   $var wire 32 $~ _GEN_102 $end
   $var wire 32 %# _GEN_52 $end
   $var wire 32 %$ _GEN_111 $end
   $var wire 32 %& _GEN_25 $end
   $var wire 32 %* _GEN_132 $end
   $var wire 32 %+ _GEN_126 $end
   $var wire 32 %, reg_15 $end
   $var wire 32 %. _GEN_10 $end
   $var wire 32 %/ _GEN_7 $end
   $var wire 32 %0 _GEN_46 $end
   $var wire 32 %1 _GEN_188 $end
   $var wire 32 %2 _GEN_105 $end
   $var wire 32 %4 _GEN_19 $end
   $var wire 32 %5 reg_5 $end
   $var wire 32 %7 _GEN_28 $end
   $var wire 32 %: _GEN_96 $end
   $var wire 32 %; _GEN_161 $end
   $var wire 32 %> _GEN_1 $end
   $var wire 32 %? _GEN_34 $end
   $var wire 32 %@ reg_8 $end
   $var wire 32 %H _GEN_108 $end
   $var wire 32 %L _GEN_13 $end
   $var wire 32 %N _GEN_176 $end
   $var wire 32 %P _GEN_182 $end
   $var wire 32 %R _GEN_114 $end
  $upscope $end
  $scope module alu $end
   $var wire 1 ( io_boolVal $end
   $var wire 1 8 _GEN_1 $end
   $var wire 4 J io_op $end
   $var wire 32 M _GEN_4 $end
   $var wire 1 W _GEN_12 $end
   $var wire 32 "2 io_a $end
   $var wire 32 "Z io_result $end
   $var wire 32 "` _GEN_6 $end
   $var wire 32 "i _GEN_0 $end
   $var wire 32 "r _GEN_9 $end
   $var wire 1 #" _T $end
   $var wire 1 #/ _GEN_3 $end
   $var wire 64 #R _GEN_11 $end
   $var wire 32 $) _GEN_2 $end
   $var wire 1 $A _GEN_5 $end
   $var wire 1 $J _GEN_10 $end
   $var wire 1 $S _GEN_8 $end
   $var wire 64 $X _GEN_13 $end
   $var wire 32 $u io_b $end
   $var wire 32 %D _GEN_7 $end
  $upscope $end
$upscope $end
$enddefinitions $end
$dumpvars
b00000000000000000000000000000000 %
b0000 $_
b0000000000000000 t
0$%
b00000000000000000000000000000000 ${
b00000000000000000000000000000000 $^
b00000000000000000000000000000000 %?
b00000000000000000000000000000000 #h
b00000000000000000000000000000000 %*
b00000000000000000000000000000000 "j
b00000000000000000000000000000000 #K
b00000000000000000000000000000000 "U
b00000000000000000000000000000000 #6
b00000000000000000000000000000000 "M
b00000000000000000000000000000000 #.
b00000000000000000000000000000000 "#
b00000000000000000000000000000000 r
b00000000000000000000000000000000 "8
0#t
0%6
0#W
b00000000000000000000000000000000 "I
b00000000000000000000000000000000 #*
0%G
0~
b00000000000000000000000000000000 w
0L
b00000000000000000000000000000000 #w
0"@
b00000000000000000000000000000000 %N
b00000000000000000000000000000000 0
b00000000000000000000000000000000 #o
b00000000000000000000000000000000 $;
b00000000000000000000000000000000 $P
b00000000000000000000000000000000 %1
b0000000000000000 #L
b00000000000000000000000000000000 "G
b0000 #O
b00000000000000000000000000000000 s
b00000000000000000000000000000000 $~
b00000000000000000000000000000000 $i
b00000000000000000000000000000000 %J
0]
b0000000000000000 $p
b00000000000000000000000000000000 #s
b00000000000000000000000000000000 "u
b00000000000000000000000000000000 #V
b00000000000000000000000000000000 $
b00000000000000000000000000000000 $T
b00000000000000000000000000000000 #9
b00000000000000000000000000000000 #$
b0000000000000000 "_
b00000000000000000000000000000000 %5
b00000000000000000000000000000000 A
b00000000000000000000000000000000 "&
0%A
0%9
0$C
0"l
b00000 ,
b00000000000000000000000000000000 q
0#0
b00000000000000000000000000000000 $|
b00000000000000000000000000000000 T
0>
b00000000000000000000000000000000 %+
b0000000000000000 %O
b0000 $R
0#^
b00000000000000000000000000000000 m
0$"
b00000000000000000000000000000000 e
b00000000000000000000000000000000 P
0"C
b00000000000000000000000000000000 #e
b00000000000000000000000000000000 $[
0:
b0000000000000000 %C
b00000000000000000000000000000000 3
b00000000000000000000000000000000 $)
b00000000000000000000000000000000 "5
b00 $O
b0000000000000000000000000000000000000000000000000000000000000000 $X
0"?
b00000000000000000000000000000000 #v
b0000000000000000 #}
b00000000000000000000000000000000 $W
0"*
b00000000000000000000000000000000 "c
b00000000000000000000000000000000 #D
b00000000000000000000000000000000 "1
b0000 "m
b00000 $m
0?
b00000000000000000000000000000000 #j
b00000000000000000000000000000000 $K
b00000000000000000000000000000000 %,
0$N
0#P
0$1
b00000000000000000000000000000000 $j
b00000000000000000000000000000000 "%
b00000000000000000000000000000000 B
b00000000000000000000000000000000 -
b00000000000000000000000000000000 "v
b00000000000000000000000000000000 $8
b0000000000000000 $*
0;
b0000000000000000000000000000000000000000000000000000000000000000 #R
b00000000000000000000000000000000 #f
b00000000000000000000000000000000 $G
b00000000000000000000000000000000 #4
b00000000000000000000000000000000 p
b00000000000000000000000000000000 $f
b00000000000000000000000000000000 "6
b00000000000000000000000000000000 S
b00000000000000000000000000000000 "!
0#/
0"9
0#@
0$!
b00000000000000000000000000000000 $Z
b00000000000000000000000000000000 %;
b00000000000000000000000000000000 2
0#_
b00000000000000000000000000000000 #G
b00000000000000000000000000000000 "Q
b00000000000000000000000000000000 #2
0$@
0|
b00000000000000000000000000000000 #u
b00000000000000000000000000000000 $V
b00000000000000000000000000000000 %7
0#p
b00000000000000000000000000000000 "b
b00000000000000000000000000000000 #C
b00000000000000000000000000000000 $$
b00000000000000000000000000000000 "E
b00000000000000000000000000000000 #&
b00000000000000000000000000000000 M
b00000000000000000000000000000000 "0
b00000000000000000000000000000000 "^
b00000000000000000000000000000000 #?
b00000000000000000000000000000000 "A
b00000000000000000000000000000000 ^
b0000000000000000 $x
b00000000000000000000000000000000 ",
b00000000000000000000000000000000 "$
0#`
0$A
0%"
b00000000000000000000000000000000 o
b00000000000000000000000000000000 $z
0Y
b00000000000000000000000000000000 $e
b00000000000000000000000000000000 "q
b00 =
b00000000000000000000000000000000 $3
b00000000000000000000000000000000 "i
b00000000000000000000000000000000 #5
b00000000000000000000000000000000 $+
b00000000000000000000000000000000 "7
b00000000000000000000000000000000 $v
b00000000000000000000000000000000 $a
b00000000000000000000000000000000 %B
b00000000000000000000000000000000 N
b00000000000000000000000000000000 #x
b00000000000000000000000000000000 #c
b00000000000000000000000000000000 $D
b00000000000000000000000000000000 $Y
b00000000000000000000000000000000 %:
b00000000000000000000000000000000 #F
b00000000000000000000000000000000 "P
b00000000000000000000000000000000 #1
b00000000000000000000000000000000 $'
08
b00000000000000000000000000000000 #N
0#{
0%=
0"y
0#Z
b00000000000000000000000000000000 $t
0"\
b00000000000000000000000000000000 a
0K
0#(
0#=
b00 $,
0#k
0$L
0%-
b0000000000000000 i
b00000000000000000000000000000000 z
0"X
0y
0\
b00000000000000000000000000000000 $h
b00000000000000000000000000000000 #r
b00000000000000000000000000000000 %4
b00000000000000000000000000000000 H
b00000000000000000000000000000000 +
b00000000000000000000000000000000 #U
b00000000000000000000000000000000 $6
0$/
b00000000000000000000000000000000 @
b0000000000000000 /
b00000000000000000000000000000000 "B
b00000000000000000000000000000000 n
0X
0#-
b0000 '
0""
b00000000000000000000000000000000 $d
b00000000000000000000000000000000 #n
b00000000000000000000000000000000 %0
b00000000000000000000000000000000 "p
b00000000000000000000000000000000 #Q
b00000000000000000000000000000000 <
b00000000000000000000000000000000 ">
0%Q
0#z
0%<
1$`
b0000000000000000 x
0#]
b00000000000000000000000000000000 "d
b00000000000000000000000000000000 #E
b00000000000000000000000000000000 l
0V
b00000000000000000000000000000000 $&
b00000000000000000000000000000000 "2
b00000000000000000000000000000000 O
0"g
b00000000000000000000000000000000 #d
b00000000000000000000000000000000 $E
b00000000000000000000000000000000 %&
0#H
0$l
0%8
0%M
b000 $.
b00000000000000000000000000000000 "`
b00000000000000000000000000000000 }
b00000000000000000000000000000000 h
b00000000000000000000000000000000 #A
0#'
b00000000000000000000000000000000 ".
0"[
b00000000000000000000000000000000 6
0#<
0")
b0000000000000000 %)
b0000000000000000 "T
0[
0%K
b00000000000000000000000000000000 $g
b00000000000000000000000000000000 %H
0":
b00000000000000000000000000000000 #q
b00000000000000000000000000000000 #T
b00000000000000000000000000000000 $5
0F
b0000 "h
0W
b00000000000000000000000000000000 %D
0$I
b00000000000000000000000000000000 "o
b00000000000000000000000000000000 "R
b00000000000000000000000000000000 #3
b00000000000000000000000000000000 Z
b00000000000000000000000000000000 "=
0#y
b00000000000000000000000000000000 #a
b00000000000000000000000000000000 $B
b00000000000000000000000000000000 %#
b0000000000000000 $4
0"f
0$(
b00000000000000000000000000000000 "N
b0000000000000000 E
b00000000000000000000000000000000 "k
b00000000000000000000000000000000 $-
0!
b00000000000000000000000000000000 9
b00 #8
0"w
0#X
0{
0$9
b0000000000000000 k
b00000000000000000000000000000000 $r
b0000 J
0Q
b00000000000000000000000000000000 $U
0"(
b00000000000000000000000000000000 "~
b00000000000000000000000000000000 "a
b00000000000000000000000000000000 "L
b00000000000000000000000000000000 #B
b00000000000000000000000000000000 "D
0$J
b0000 #i
0b
0"V
b00000000000000000000000000000000 $n
b00000000000000000000000000000000 $Q
b00000000000000000000000000000000 %2
b00000000000000000000000000000000 "z
0(
0$7
b00000000000000000000000000000000 "r
b00000000000000000000000000000000 "]
b00000000000000000000000000000000 #>
b00000000000000000000000000000000 )
b00000000000000000000000000000000 #!
b00000000000000000000000000000000 "+
b00000000000000000000000000000000 #[
b00000000000000000000000000000000 $<
b00000000000000000000000000000000 #)
0#|
0#g
0$H
0#J
b00000000000000000000000000000000 "<
b0000 j
b00000000000000000000000000000000 $}
0"e
b0000000000000000 D
b00000000000000000000000000000000 $u
0"3
b00000000000000000000000000000000 U
07
b00000000000000000000000000000000 #b
b00000000000000000000000000000000 %$
b00000000000000000000000000000000 #
b0000000000000000 "s
0"H
b00000000000000000000000000000000 "O
b00000000000000000000000000000000 $y
0$#
b00000000000000000000000000000000 f
1#\
0#%
b00000000000000000000000000000000 $q
b00000000000000000000000000000000 I
b00000000000000000000000000000000 4
0"'
b00000000000000000000000000000000 $\
b00000000000000000000000000000000 %R
b00000000000000000000000000000000 "}
b00000000000000000000000000000000 #I
b00000000000000000000000000000000 "K
b00000000000000000000000000000000 #,
b00000000000000000000000000000000 $?
0%I
0$S
b00000 %!
0"t
0c
0"W
0##
b00000000000000000000000000000000 $o
b00000000000000000000000000000000 G
b00000000000000000000000000000000 %P
b00000000000000000000000000000000 "{
b00000000000000000000000000000000 $=
b0000000000000000 %%
b00000000000000000000000000000000 *
b00000000000000000000000000000000 d
0%E
b0000 "4
0%(
0$2
b00000 #S
b00000000000000000000000000000000 u
0_
0"S
b00000000000000000000000000000000 ";
b00000000000000000000000000000000 $k
b00000000000000000000000000000000 C
b00000000000000000000000000000000 %L
b00000000000000000000000000000000 #m
b00000000000000000000000000000000 %/
b00000000000000000000000000000000 &
b00000000000000000000000000000000 "Z
b00000000000000000000000000000000 #;
b0000000000000000 "/
0$w
b00000000000000000000000000000000 #~
b00000000000000000000000000000000 %@
b00000000000000000000000000000000 "
b00000000000000000000000000000000 #7
0$s
b00000000000000000000000000000000 "|
b00000000000000000000000000000000 $>
b00000000000000000000000000000000 "J
b00000000000000000000000000000000 g
b00000000000000000000000000000000 R
b00000000000000000000000000000000 $]
b00000000000000000000000000000000 "-
b00000000000000000000000000000000 %>
b00000000000000000000000000000000 5
b00000000000000000000000000000000 #+
0%3
b00000000000000000000000000000000 "x
b00000000000000000000000000000000 #Y
b00000000000000000000000000000000 $:
1`
0.
b00000000000000000000000000000000 "F
0#"
b00000000000000000000000000000000 1
b0000000000000000 #M
b0000 $c
0$F
0%'
0%F
b00000000000000000000000000000000 $b
b00000000000000000000000000000000 #l
b00000000000000000000000000000000 $M
b00000000000000000000000000000000 %.
b00000000000000000000000000000000 "n
b00000000000000000000000000000000 "Y
b00000000000000000000000000000000 v
b00000000000000000000000000000000 #:
b00000000000000000000000000000000 $0
$end
#0
1$9
b0000000000000001 "_
1$L
1%K
b0000000000000001 D
1"C
1$"
1#t
1%(
#1
1#`
1#J
1%-
1#z
1%9
1#'
1#H
1")
1#(
1L
1|
1;
#6
0#`
0#J
0%-
0#z
0%9
0#'
0#H
0")
0#(
0L
0|
0;
#11
1#`
1#J
1%-
1#z
1%9
1#'
1#H
1")
1#(
1L
1|
1;
#16
0#`
0#J
0%-
0#z
0%9
0#'
0#H
0")
0#(
0L
0|
0;
#21
1#`
1#J
1%-
1#z
1%9
1#'
1#H
1")
1#(
1L
1|
1;
#26
0#`
0#J
0%-
0#z
0%9
0#'
0#H
0")
0#(
0L
0|
0;
#31
1#`
1#J
1%-
1#z
1%9
1#'
1#H
1")
1#(
1L
1|
1;
#36
0#`
0#J
0%-
0#z
0%9
0#'
0#H
0")
0#(
0L
0|
0;
#41
1#`
1#J
1%-
1#z
1%9
1#'
1#H
1")
1#(
1L
1|
1;
#46
1Q
0%-
0#z
0$L
0#H
0L
0#t
0%(
0#`
1#%
0$9
1#X
0#J
1$I
0%9
1V
0#'
1"y
1]
0")
0#(
0|
0;
#51
1#`
1#J
1%-
1#z
1%9
1$%
1#'
1#H
1")
1#(
1L
1|
1;
#56
0%-
0#z
0#H
0L
b0000000000000001 /
0#`
0#J
b0000000000000001 #}
0%9
0#'
0")
0#(
b0000000000000001 #L
b0000000000000001 $4
0|
0;
#61
1#`
1#J
1%-
1#z
1%9
1#'
1#H
1")
b0000000000000001 E
1#(
1L
1|
1;
#66
0%-
0#z
0#H
0L
b0000000000000010 /
0#`
0#J
b0000000000000010 #}
0%9
0#'
0")
0#(
b0000000000000010 #L
b0000000000000010 $4
0|
0;
#71
1#`
1#J
1%-
1#z
1%9
1#'
1#H
1")
b0000000000000010 E
1#(
1L
1|
1;
#76
0%-
0#z
0#H
0L
b0000000000000011 /
0#`
0#J
b0000000000000011 #}
0%9
0#'
0")
0#(
b0000000000000011 #L
b0000000000000011 $4
0|
0;
#81
1#`
1#J
1%-
1#z
1%9
1#'
1#H
1")
b0000000000000011 E
1#(
1L
1|
1;
#86
0%-
0#z
0#H
0L
b0000000000000100 /
0#`
0#J
b0000000000000100 #}
0%9
0#'
0")
0#(
b0000000000000100 #L
b0000000000000100 $4
0|
0;
#91
1#`
1#J
1%-
1#z
1%9
1#'
1#H
1")
b0000000000000100 E
1#(
1L
1|
1;
#96
0%-
0#z
0#H
0L
b0000000000000101 /
0#`
0#J
b0000000000000101 #}
0%9
0#'
0")
0#(
b0000000000000101 #L
b0000000000000101 $4
0|
0;
#101
1#`
1#J
1%-
1#z
1%9
1#'
1#H
1")
b0000000000000101 E
1#(
1L
1|
1;
